Double_t data[ ] = {
y= 4,
yErrlow= 1.91434,
yErrhigh= 3.16275,
y= 7,
yErrlow= 2.58147,
yErrhigh= 3.77028,
y= 4,
yErrlow= 1.91434,
yErrhigh= 3.16275,
y= 1.0001,
yErrlow= 0.827293,
yErrhigh= 2.29956,
};
