Double_t mc[ ] = {
y= 7.50676,
yErrlow= 2.37865,
yErrhigh= 2.37865,
y= 4.33417,
yErrlow= 1.41986,
yErrhigh= 1.41986,
y= 1.38812,
yErrlow= 0.455211,
yErrhigh= 0.455211,
y= 0.677023,
yErrlow= 0.228941,
yErrhigh= 0.228941,
};
