Double_t mc[ ] = {
y= 6.88799,
yErrlow= 2.54943,
yErrhigh= 2.54943,
y= 1.84063,
yErrlow= 1.13334,
yErrhigh= 1.13334,
y= 0.850113,
yErrlow= 0.328199,
yErrhigh= 0.328199,
y= 0.461428,
yErrlow= 0.207556,
yErrhigh= 0.207556,
};
