Double_t mc[ ] = {
y= 16.8847,
yErrlow= 3.17503,
yErrhigh= 3.17503,
y= 9.46551,
yErrlow= 1.7721,
yErrhigh= 1.7721,
y= 3.32916,
yErrlow= 0.939729,
yErrhigh= 0.939729,
y= 2.42034,
yErrlow= 0.480625,
yErrhigh= 0.480625,
};
