Double_t mc[ ] = {
y= 3.68318,
yErrlow= 1.63733,
yErrhigh= 1.63733,
y= 9.12846,
yErrlow= 1.95234,
yErrhigh= 1.95234,
y= 1.6559,
yErrlow= 0.928036,
yErrhigh= 0.928036,
y= 3.31191,
yErrlow= 0.954167,
yErrhigh= 0.954167,
};
