%!PS-Adobe-2.0 EPSF-2.0
%%BoundingBox:  0 0 567 544
%%Title: : c1
%%Creator: ROOT Version 6.22/06
%%CreationDate: Wed Aug 31 21:48:52 2022
%%DocumentNeededResources: ProcSet (FontSetInit)
%%EndComments
%%BeginProlog
80 dict begin
/s {stroke} def /l {lineto} def /m {moveto} def /t {translate} def
/r {rotate} def /rl {roll}  def /R {repeat} def
/d {rlineto} def /rm {rmoveto} def /gr {grestore} def /f {eofill} def
/c {setrgbcolor} def /black {0 setgray} def /sd {setdash} def
/cl {closepath} def /sf {scalefont setfont} def /lw {setlinewidth} def
/box {m dup 0 exch d exch 0 d 0 exch neg d cl} def
/NC{systemdict begin initclip end}def/C{NC box clip newpath}def
/bl {box s} def /bf {gsave box gsave f grestore 1 lw [] 0 sd s grestore} def /Y { 0 exch d} def /X { 0 d} def 
/K {{pop pop 0 moveto} exch kshow} bind def
/ita {/ang 15 def gsave [1 0 ang dup sin exch cos div 1 0 0] concat} def 
/mp {newpath /y exch def /x exch def} def
/side {[w .77 mul w .23 mul] .385 w mul sd w 0 l currentpoint t -144 r} def
/mr {mp x y w2 0 360 arc} def /m24 {mr s} def /m20 {mr f} def
/mb {mp x y w2 add m w2 neg 0 d 0 w neg d w 0 d 0 w d cl} def
/mt {mp x y w2 add m w2 neg w neg d w 0 d cl} def
/w4 {w 4 div} def
/w6 {w 6 div} def
/w8 {w 8 div} def
/m21 {mb f} def /m25 {mb s} def /m22 {mt f} def /m26{mt s} def
/m23 {mp x y w2 sub m w2 w d w neg 0 d cl f} def
/m27 {mp x y w2 add m w3 neg w2 neg d w3 w2 neg d w3 w2 d cl s} def
/m28 {mp x w2 sub y w2 sub w3 add m w3 0 d  0 w3 neg d w3 0 d 0 w3 d w3 0 d  0 w3 d w3 neg 0 d 0 w3 d w3 neg 0 d 0 w3 neg d w3 neg 0 d cl s } def
/m29 {mp gsave x w2 sub y w2 add w3 sub m currentpoint t 4 {side} repeat cl fill gr} def
/m30 {mp gsave x w2 sub y w2 add w3 sub m currentpoint t 4 {side} repeat cl s gr} def
/m31 {mp x y w2 sub m 0 w d x w2 sub y m w 0 d x w2 .707 mul sub y w2 .707 mul add m w 1.44 div w 1.44 div neg d x w2 .707 mul sub y w2 .707 mul sub m w 1.44 div w 1.44 div d s} def
/m32 {mp x y w2 sub m w2 w d w neg 0 d cl s} def
/m33 {mp x y w2 add m w3 neg w2 neg d w3 w2 neg d w3 w2 d cl f} def
/m34 {mp x w2 sub y w2 sub w3 add m w3 0 d  0 w3 neg d w3 0 d 0 w3 d w3 0 d  0 w3 d w3 neg 0 d 0 w3 d w3 neg 0 d 0 w3 neg d w3 neg 0 d cl f } def
/m35 {mp x y w2 add m w2 neg w2 neg d w2 w2 neg d w2 w2 d w2 neg w2 d x y w2 sub m 0 w d x w2 sub y m w 0 d s} def
/m36 {mb x w2 sub y w2 add m w w neg d x w2 sub y w2 sub m w w d s} def
/m37 {mp x y m w4 neg w2 d w4 neg w2 neg d w2 0 d  w4 neg w2 neg d w2 0 d w4 neg w2 d w2 0 d w4 neg w2 d w4 neg w2 neg d cl s} def
/m38 {mp x w4 sub y w2 add m w4 neg w4 neg d 0 w2 neg d w4 w4 neg d w2 0 d w4 w4 d 0 w2 d w4 neg w4 d w2 neg 0 d x y w2 sub m 0 w d x w2 sub y m w 0 d cl s} def
/m39 {mp x y m w4 neg w2 d w4 neg w2 neg d w2 0 d  w4 neg w2 neg d w2 0 d w4 neg w2 d w2 0 d w4 neg w2 d w4 neg w2 neg d cl f} def
/m40 {mp x y m w4 w2 d w4 w4 neg d w2 neg w4 neg d w2 w4 neg d w4 neg w4 neg d w4 neg w2 d w4 neg w2 neg d w4 neg w4 d w2 w4 d w2 neg w4 d w4 w4 d w4 w2 neg d cl s} def
/m41 {mp x y m w4 w2 d w4 w4 neg d w2 neg w4 neg d w2 w4 neg d w4 neg w4 neg d w4 neg w2 d w4 neg w2 neg d w4 neg w4 d w2 w4 d w2 neg w4 d w4 w4 d w4 w2 neg d cl f} def
/m42 {mp x y w2 add m w8 neg w2 -3 4 div mul d w2 -3 4 div mul w8 neg d w2 3 4 div mul w8 neg d w8 w2 -3 4 div mul d w8 w2 3 4 div mul d w2 3 4 div mul w8 d w2 -3 4 div mul w8 d w8 neg w2 3 4 div mul d cl s} def
/m43 {mp x y w2 add m w8 neg w2 -3 4 div mul d w2 -3 4 div mul w8 neg d w2 3 4 div mul w8 neg d w8 w2 -3 4 div mul d w8 w2 3 4 div mul d w2 3 4 div mul w8 d w2 -3 4 div mul w8 d w8 neg w2 3 4 div mul d cl f} def
/m44 {mp x y m w6 neg w2 d w2 2 3 div mul 0 d w6 neg w2 neg d w2 w6 d 0 w2 -2 3 div mul d w2 neg w6 d w6 w2 neg d w2 -2 3 div mul 0 d w6 w2 d w2 neg w6 neg d 0 w2 2 3 div mul d w2 w6 neg d cl s} def
/m45 {mp x y m w6 neg w2 d w2 2 3 div mul 0 d w6 neg w2 neg d w2 w6 d 0 w2 -2 3 div mul d w2 neg w6 d w6 w2 neg d w2 -2 3 div mul 0 d w6 w2 d w2 neg w6 neg d 0 w2 2 3 div mul d w2 w6 neg d cl f} def
/m46 {mp x y w4 add m w4 neg w4 d w4 neg w4 neg d  w4 w4 neg d w4 neg w4 neg d w4 w4 neg d w4 w4 d w4 w4 neg d w4 w4 d w4 neg w4 d w4 w4 d w4 neg w4 d w4 neg w4 neg d cl s} def
/m47 {mp x y w4 add m w4 neg w4 d w4 neg w4 neg d w4 w4 neg d w4 neg w4 neg d  w4 w4 neg d w4 w4 d w4 w4 neg d w4 w4 d w4 neg w4 d w4 w4 d w4 neg w4 d w4 neg w4 neg d cl f} def
/m48 {mp x y w4 add m w4 neg w4 d w4 neg w4 neg d w4 w4 neg d  w4 neg w4 neg d w4 w4 neg d w4 w4 d w4 w4 neg d w4 w4 d w4 neg w4 d w4 w4 d w4 neg w4 d w4 neg w4 neg d  w4 w4 neg d w4 neg w4 neg d w4 neg w4 d w4 w4 d cl f} def
/m49 {mp x w2 sub w3 add y w2 sub w3 add m  0 w3 neg d w3 0 d 0 w3 d w3 0 d 0 w3 d w3 neg 0 d 0 w3 d w3 neg 0 d 0 w3 neg d w3 neg 0 d 0 w3 neg d w3 0 d 0 w3 d w3 0 d 0 w3 neg d w3 neg 0 d cl f } def
/m2 {mp x y w2 sub m 0 w d x w2 sub y m w 0 d s} def
/m5 {mp x w2 .707 mul sub y w2 .707 mul sub m w 1.44 div w 1.44 div d x w2 .707 mul sub y w2 .707 mul add m w 1.44 div w 1.44 div neg d s} def
%%IncludeResource: ProcSet (FontSetInit)
%%IncludeResource: font Times-Roman
%%IncludeResource: font Times-Italic
%%IncludeResource: font Times-Bold
%%IncludeResource: font Times-BoldItalic
%%IncludeResource: font Helvetica
%%IncludeResource: font Helvetica-Oblique
%%IncludeResource: font Helvetica-Bold
%%IncludeResource: font Helvetica-BoldOblique
%%IncludeResource: font Courier
%%IncludeResource: font Courier-Oblique
%%IncludeResource: font Courier-Bold
%%IncludeResource: font Courier-BoldOblique
%%IncludeResource: font Symbol
%%IncludeResource: font ZapfDingbats
/reEncode {exch findfont dup length dict begin {1 index /FID eq  {pop pop} {def} ifelse } forall /Encoding exch def currentdict end dup /FontName get exch definefont pop } def [/Times-Bold /Times-Italic /Times-BoldItalic /Helvetica /Helvetica-Oblique
 /Helvetica-Bold /Helvetica-BoldOblique /Courier /Courier-Oblique /Courier-Bold /Courier-BoldOblique /Times-Roman /AvantGarde-Book /AvantGarde-BookOblique /AvantGarde-Demi /AvantGarde-DemiOblique /Bookman-Demi /Bookman-DemiItalic /Bookman-Light
 /Bookman-LightItalic /Helvetica-Narrow /Helvetica-Narrow-Bold /Helvetica-Narrow-BoldOblique /Helvetica-Narrow-Oblique /NewCenturySchlbk-Roman /NewCenturySchlbk-Bold /NewCenturySchlbk-BoldItalic /NewCenturySchlbk-Italic /Palatino-Bold
 /Palatino-BoldItalic /Palatino-Italic /Palatino-Roman ] {ISOLatin1Encoding reEncode } forall
%%EndProlog
%%BeginSetup
%%EndSetup
newpath  gsave  .25 .25 scale  gsave  0 0 t black[  ] 0 sd 3 lw 1 1 1 c 2268 2176 0 0 bf black 1 1 1 c 2245 1433 0 743 bf black 1 1 1 c 1774 1355 359 750 bf black 1774 1355 359 750 bl 1 1 1 c 1774 1355 359 750 bf black 1774 1355 359 750 bl 359 750 m
 1774 X s 359 784 m -34 Y s 408 767 m -17 Y s 458 767 m -17 Y s 507 767 m -17 Y s 556 767 m -17 Y s 606 767 m -17 Y s 655 784 m -34 Y s 704 767 m -17 Y s 753 767 m -17 Y s 803 767 m -17 Y s 852 767 m -17 Y s 901 767 m -17 Y s 950 784 m -34 Y s 1000
 767 m -17 Y s 1049 767 m -17 Y s 1098 767 m -17 Y s 1147 767 m -17 Y s 1197 767 m -17 Y s 1246 784 m -34 Y s 1295 767 m -17 Y s 1345 767 m -17 Y s 1394 767 m -17 Y s 1443 767 m -17 Y s 1492 767 m -17 Y s 1542 784 m -34 Y s 1591 767 m -17 Y s 1640
 767 m -17 Y s 1689 767 m -17 Y s 1739 767 m -17 Y s 1788 767 m -17 Y s 1837 784 m -34 Y s 1886 767 m -17 Y s 1936 767 m -17 Y s 1985 767 m -17 Y s 2034 767 m -17 Y s 2084 767 m -17 Y s 2133 784 m -34 Y s
 gsave  2245 1433 0 743 C -3504.31 213.074 t 0 r /Helvetica findfont 202.014 sf 0 0 m (obs_x_WDB1LCRVR2boostedMETSigHighMeffEM_met_Signif) show NC gr  359 2105 m 1774 X s 359 2071 m 34 Y s 408 2088 m 17 Y s 458 2088 m 17 Y s 507 2088 m 17 Y s 556
 2088 m 17 Y s 606 2088 m 17 Y s 655 2071 m 34 Y s 704 2088 m 17 Y s 753 2088 m 17 Y s 803 2088 m 17 Y s 852 2088 m 17 Y s 901 2088 m 17 Y s 950 2071 m 34 Y s 1000 2088 m 17 Y s 1049 2088 m 17 Y s 1098 2088 m 17 Y s 1147 2088 m 17 Y s 1197 2088 m 17
 Y s 1246 2071 m 34 Y s 1295 2088 m 17 Y s 1345 2088 m 17 Y s 1394 2088 m 17 Y s 1443 2088 m 17 Y s 1492 2088 m 17 Y s 1542 2071 m 34 Y s 1591 2088 m 17 Y s 1640 2088 m 17 Y s 1689 2088 m 17 Y s 1739 2088 m 17 Y s 1788 2088 m 17 Y s 1837 2071 m 34 Y
 s 1886 2088 m 17 Y s 1936 2088 m 17 Y s 1985 2088 m 17 Y s 2034 2088 m 17 Y s 2084 2088 m 17 Y s 2133 2071 m 34 Y s 359 750 m 1355 Y s 391 750 m -32 X s 391 765 m -32 X s 391 778 m -32 X s 391 789 m -32 X s 423 799 m -64 X s
 gsave  2245 1433 0 743 C 312.001 795.223 t 0 r /Helvetica findfont 60.9855 sf 0 0 m (1) show NC gr 
 gsave  2245 1433 0 743 C 277.757 795.223 t 0 r /Symbol findfont 60.9855 sf 0 0 m (-) show NC gr 
 gsave  2245 1433 0 743 C 175.025 757.174 t 0 r /Helvetica findfont 95.2898 sf 0 0 m (10) show NC gr  391 864 m -32 X s 391 903 m -32 X s 391 930 m -32 X s 391 951 m -32 X s 391 968 m -32 X s 391 983 m -32 X s 391 995 m -32 X s 391 1006 m -32 X s 423
 1016 m -64 X s
 gsave  2245 1433 0 743 C 300.587 981.663 t 0 r /Helvetica findfont 95.2898 sf 0 0 m (1) show NC gr  391 1082 m -32 X s 391 1120 m -32 X s 391 1147 m -32 X s 391 1169 m -32 X s 391 1186 m -32 X s 391 1200 m -32 X s 391 1213 m -32 X s 391 1224 m -32 X
 s 423 1234 m -64 X s
 gsave  2245 1433 0 743 C 232.099 1202.35 t 0 r /Helvetica findfont 95.2898 sf 0 0 m (10) show NC gr  391 1300 m -32 X s 391 1338 m -32 X s 391 1365 m -32 X s 391 1386 m -32 X s 391 1403 m -32 X s 391 1418 m -32 X s 391 1431 m -32 X s 391 1442 m -32
 X s 423 1452 m -64 X s
 gsave  2245 1433 0 743 C 300.587 1449.66 t 0 r /Helvetica findfont 60.9855 sf 0 0 m (2) show NC gr 
 gsave  2245 1433 0 743 C 197.854 1411.62 t 0 r /Helvetica findfont 95.2898 sf 0 0 m (10) show NC gr  391 1517 m -32 X s 391 1556 m -32 X s 391 1583 m -32 X s 391 1604 m -32 X s 391 1621 m -32 X s 391 1636 m -32 X s 391 1648 m -32 X s 391 1659 m -32
 X s 423 1669 m -64 X s
 gsave  2245 1433 0 743 C 300.587 1670.35 t 0 r /Helvetica findfont 60.9855 sf 0 0 m (3) show NC gr 
 gsave  2245 1433 0 743 C 197.854 1628.49 t 0 r /Helvetica findfont 95.2898 sf 0 0 m (10) show NC gr  391 1735 m -32 X s 391 1773 m -32 X s 391 1800 m -32 X s 391 1822 m -32 X s 391 1839 m -32 X s 391 1853 m -32 X s 391 1866 m -32 X s 391 1877 m -32
 X s 423 1887 m -64 X s
 gsave  2245 1433 0 743 C 300.587 1883.42 t 0 r /Helvetica findfont 60.9855 sf 0 0 m (4) show NC gr 
 gsave  2245 1433 0 743 C 197.854 1845.37 t 0 r /Helvetica findfont 95.2898 sf 0 0 m (10) show NC gr  391 1953 m -32 X s 391 1991 m -32 X s 391 2018 m -32 X s 391 2039 m -32 X s 391 2056 m -32 X s 391 2071 m -32 X s 391 2084 m -32 X s 391 2095 m -32
 X s 423 2105 m -64 X s
 gsave  2245 1433 0 743 C 300.587 2107.91 t 0 r /Helvetica findfont 60.9855 sf 0 0 m (5) show NC gr 
 gsave  2245 1433 0 743 C 197.854 2066.06 t 0 r /Helvetica findfont 95.2898 sf 0 0 m (10) show NC gr 
 gsave  2245 1433 0 743 C 152.196 1601.86 t 90 r /Helvetica findfont 106.725 sf 0 0 m (Events / 4 ) show NC gr  2133 750 m 1355 Y s 2101 750 m 32 X s 2101 765 m 32 X s 2101 778 m 32 X s 2101 789 m 32 X s 2069 799 m 64 X s 2101 864 m 32 X s 2101 903 m
 32 X s 2101 930 m 32 X s 2101 951 m 32 X s 2101 968 m 32 X s 2101 983 m 32 X s 2101 995 m 32 X s 2101 1006 m 32 X s 2069 1016 m 64 X s 2101 1082 m 32 X s 2101 1120 m 32 X s 2101 1147 m 32 X s 2101 1169 m 32 X s 2101 1186 m 32 X s 2101 1200 m 32 X s
 2101 1213 m 32 X s 2101 1224 m 32 X s 2069 1234 m 64 X s 2101 1300 m 32 X s 2101 1338 m 32 X s 2101 1365 m 32 X s 2101 1386 m 32 X s 2101 1403 m 32 X s 2101 1418 m 32 X s 2101 1431 m 32 X s 2101 1442 m 32 X s 2069 1452 m 64 X s 2101 1517 m 32 X s
 2101 1556 m 32 X s 2101 1583 m 32 X s 2101 1604 m 32 X s 2101 1621 m 32 X s 2101 1636 m 32 X s 2101 1648 m 32 X s 2101 1659 m 32 X s 2069 1669 m 64 X s 2101 1735 m 32 X s 2101 1773 m 32 X s 2101 1800 m 32 X s 2101 1822 m 32 X s 2101 1839 m 32 X s
 2101 1853 m 32 X s 2101 1866 m 32 X s 2101 1877 m 32 X s 2069 1887 m 64 X s 2101 1953 m 32 X s 2101 1991 m 32 X s 2101 2018 m 32 X s 2101 2039 m 32 X s 2101 2056 m 32 X s 2101 2071 m 32 X s 2101 2084 m 32 X s 2101 2095 m 32 X s 2069 2105 m 64 X s 6
 lw 507 1097 m 64 Y s 507 1161 m cl s 507 1067 m -83 Y s 507 984 m cl s 1985 1163 m 39 Y s 1985 1202 m cl s 1985 1132 m -46 Y s 1985 1086 m cl s 1 1 1 c black 3 lw /w 37 def /w2 {w 2 div} def /w3 {w 3 div} def 507 1082 803 1411 1098 1508 1394 1549
 1689 1426 1985 1147 6 { m20} R 6 lw 12 lw 1 1 1 c black 359 750 m 385 Y s 359 1135 m 296 X 270 Y 295 X 106 Y 296 X 23 Y 296 X -114 Y 295 X -271 Y 296 X -399 Y s 0.2 0.6 1 c 9 lw black 3 lw 0.2 0.6 1 c 359 750 m 385 Y 296 X 270 Y 295 X 106 Y 296 X 23
 Y 296 X -114 Y 295 X -271 Y 296 X -399 Y f 9 lw 0.6 1 0.6 c black 3 lw 0.6 1 0.6 c 359 750 m 314 Y 296 X 293 Y 295 X 96 Y 296 X 3 Y 296 X -138 Y 295 X -306 Y 296 X -262 Y f 9 lw 0.6 0.4 0.8 c black 3 lw 0.6 0.4 0.8 c 359 750 m 290 Y 296 X 286 Y 295
 X 94 Y 296 X 11 Y 296 X -125 Y 295 X -301 Y 296 X -255 Y f 9 lw 1 0 0 c black 3 lw 1 0 0 c 359 750 m 207 Y 296 X 305 Y 295 X 73 Y 296 X -21 Y 296 X -175 Y 295 X -177 Y 296 X -212 Y f 9 lw 0 0.6 0 c black 3 lw 0 0.6 0 c 359 750 m 204 Y 296 X 307 Y
 295 X 71 Y 296 X -27 Y 296 X -179 Y 295 X -170 Y 296 X -206 Y f 9 lw 1 0.6 0 c black 3 lw 1 0.6 0 c 655 750 m 149 Y 295 X 108 Y 296 X -14 Y 296 X -123 Y 295 X -120 Y f 9 lw black 3 lw 1 0.6 0 c 655 750 m 119 Y 295 X 125 Y 296 X -23 Y 296 X -108 Y
 295 X -113 Y f 9 lw black 3 lw 1 0.6 0 c 655 750 m 119 Y 295 X 125 Y 296 X -23 Y 296 X -108 Y 295 X -113 Y f 9 lw black 1 0.6 0 c black 3 lw 1 lw << /PatternType 1 /PaintType 2 /TilingType 1 /BBox [ 0 0 100 100 ] /XStep 100 /YStep 100 /PaintProc {
 begin gsave 0 0 m 100 100 l s gr end } >> [ 0.24 0 0 0.24 0 0 ] makepattern /P04 exch def /cs {[/Pattern /DeviceRGB] setcolorspace} def /FA {f [/DeviceRGB] setcolorspace} def cs 0 0 0 P04 setcolor 359 750 m 411 Y 296 X 253 Y 295 X 104 Y 296 X 24 Y
 296 X -112 Y 295 X -253 Y 296 X -427 Y 358 Y -296 X 301 Y -295 X 115 Y -296 X -20 Y -296 X -108 Y -295 X -298 Y -296 X -348 Y FA 3 lw black 12 lw 1 1 1 c black 359 750 m 385 Y s 359 1135 m 296 X 270 Y 295 X 106 Y 296 X 23 Y 296 X -114 Y 295 X -271 Y
 296 X -399 Y s 6 lw 507 1097 m 64 Y s 507 1161 m cl s 507 1067 m -83 Y s 507 984 m cl s 1985 1163 m 39 Y s 1985 1202 m cl s 1985 1132 m -46 Y s 1985 1086 m cl s 1 1 1 c black 3 lw 507 1082 803 1411 1098 1508 1394 1549 1689 1426 1985 1147 6 { m20} R
 6 lw 3 lw 359 750 m 1774 X s 359 784 m -34 Y s 408 767 m -17 Y s 458 767 m -17 Y s 507 767 m -17 Y s 556 767 m -17 Y s 606 767 m -17 Y s 655 784 m -34 Y s 704 767 m -17 Y s 753 767 m -17 Y s 803 767 m -17 Y s 852 767 m -17 Y s 901 767 m -17 Y s 950
 784 m -34 Y s 1000 767 m -17 Y s 1049 767 m -17 Y s 1098 767 m -17 Y s 1147 767 m -17 Y s 1197 767 m -17 Y s 1246 784 m -34 Y s 1295 767 m -17 Y s 1345 767 m -17 Y s 1394 767 m -17 Y s 1443 767 m -17 Y s 1492 767 m -17 Y s 1542 784 m -34 Y s 1591
 767 m -17 Y s 1640 767 m -17 Y s 1689 767 m -17 Y s 1739 767 m -17 Y s 1788 767 m -17 Y s 1837 784 m -34 Y s 1886 767 m -17 Y s 1936 767 m -17 Y s 1985 767 m -17 Y s 2034 767 m -17 Y s 2084 767 m -17 Y s 2133 784 m -34 Y s 359 2105 m 1774 X s 359
 2071 m 34 Y s 408 2088 m 17 Y s 458 2088 m 17 Y s 507 2088 m 17 Y s 556 2088 m 17 Y s 606 2088 m 17 Y s 655 2071 m 34 Y s 704 2088 m 17 Y s 753 2088 m 17 Y s 803 2088 m 17 Y s 852 2088 m 17 Y s 901 2088 m 17 Y s 950 2071 m 34 Y s 1000 2088 m 17 Y s
 1049 2088 m 17 Y s 1098 2088 m 17 Y s 1147 2088 m 17 Y s 1197 2088 m 17 Y s 1246 2071 m 34 Y s 1295 2088 m 17 Y s 1345 2088 m 17 Y s 1394 2088 m 17 Y s 1443 2088 m 17 Y s 1492 2088 m 17 Y s 1542 2071 m 34 Y s 1591 2088 m 17 Y s 1640 2088 m 17 Y s
 1689 2088 m 17 Y s 1739 2088 m 17 Y s 1788 2088 m 17 Y s 1837 2071 m 34 Y s 1886 2088 m 17 Y s 1936 2088 m 17 Y s 1985 2088 m 17 Y s 2034 2088 m 17 Y s 2084 2088 m 17 Y s 2133 2071 m 34 Y s 359 750 m 1355 Y s 391 750 m -32 X s 391 765 m -32 X s 391
 778 m -32 X s 391 789 m -32 X s 423 799 m -64 X s 391 864 m -32 X s 391 903 m -32 X s 391 930 m -32 X s 391 951 m -32 X s 391 968 m -32 X s 391 983 m -32 X s 391 995 m -32 X s 391 1006 m -32 X s 423 1016 m -64 X s 391 1082 m -32 X s 391 1120 m -32 X
 s 391 1147 m -32 X s 391 1169 m -32 X s 391 1186 m -32 X s 391 1200 m -32 X s 391 1213 m -32 X s 391 1224 m -32 X s 423 1234 m -64 X s 391 1300 m -32 X s 391 1338 m -32 X s 391 1365 m -32 X s 391 1386 m -32 X s 391 1403 m -32 X s 391 1418 m -32 X s
 391 1431 m -32 X s 391 1442 m -32 X s 423 1452 m -64 X s 391 1517 m -32 X s 391 1556 m -32 X s 391 1583 m -32 X s 391 1604 m -32 X s 391 1621 m -32 X s 391 1636 m -32 X s 391 1648 m -32 X s 391 1659 m -32 X s 423 1669 m -64 X s 391 1735 m -32 X s
 391 1773 m -32 X s 391 1800 m -32 X s 391 1822 m -32 X s 391 1839 m -32 X s 391 1853 m -32 X s 391 1866 m -32 X s 391 1877 m -32 X s 423 1887 m -64 X s 391 1953 m -32 X s 391 1991 m -32 X s 391 2018 m -32 X s 391 2039 m -32 X s 391 2056 m -32 X s
 391 2071 m -32 X s 391 2084 m -32 X s 391 2095 m -32 X s 423 2105 m -64 X s 2133 750 m 1355 Y s 2101 750 m 32 X s 2101 765 m 32 X s 2101 778 m 32 X s 2101 789 m 32 X s 2069 799 m 64 X s 2101 864 m 32 X s 2101 903 m 32 X s 2101 930 m 32 X s 2101 951
 m 32 X s 2101 968 m 32 X s 2101 983 m 32 X s 2101 995 m 32 X s 2101 1006 m 32 X s 2069 1016 m 64 X s 2101 1082 m 32 X s 2101 1120 m 32 X s 2101 1147 m 32 X s 2101 1169 m 32 X s 2101 1186 m 32 X s 2101 1200 m 32 X s 2101 1213 m 32 X s 2101 1224 m 32
 X s 2069 1234 m 64 X s 2101 1300 m 32 X s 2101 1338 m 32 X s 2101 1365 m 32 X s 2101 1386 m 32 X s 2101 1403 m 32 X s 2101 1418 m 32 X s 2101 1431 m 32 X s 2101 1442 m 32 X s 2069 1452 m 64 X s 2101 1517 m 32 X s 2101 1556 m 32 X s 2101 1583 m 32 X
 s 2101 1604 m 32 X s 2101 1621 m 32 X s 2101 1636 m 32 X s 2101 1648 m 32 X s 2101 1659 m 32 X s 2069 1669 m 64 X s 2101 1735 m 32 X s 2101 1773 m 32 X s 2101 1800 m 32 X s 2101 1822 m 32 X s 2101 1839 m 32 X s 2101 1853 m 32 X s 2101 1866 m 32 X s
 2101 1877 m 32 X s 2069 1887 m 64 X s 2101 1953 m 32 X s 2101 1991 m 32 X s 2101 2018 m 32 X s 2101 2039 m 32 X s 2101 2056 m 32 X s 2101 2071 m 32 X s 2101 2084 m 32 X s 2101 2095 m 32 X s 2069 2105 m 64 X s
 gsave  2245 1433 0 743 C 1023.52 1872.01 t 0 r /Helvetica findfont 45.7391 sf 0 0 m (\2551) show NC gr 
 gsave  2245 1433 0 743 C 494.636 1841.57 t 0 r /Helvetica findfont 68.6087 sf 0 0 m ( = 13 TeV, 139 fb) show NC gr 
 gsave  2245 1433 0 743 C 460.392 1841.57 t 0 r /Helvetica findfont 68.6087 sf 0 0 m (s) show NC gr  6 lw 438 1880 m 7 -42 d s 3 lw 445 1838 m 8 61 d s 453 1899 m 42 X s
 gsave  2245 1433 0 743 C 426.148 1959.52 t 0 r /Helvetica-BoldOblique findfont 80.0434 sf 0 0 m (ATLAS) show NC gr 
 gsave  2245 1433 0 743 C 715.32 1967.13 t 0 r /Helvetica findfont 72.4203 sf 0 0 m (Preliminary) show NC gr 
 gsave  2245 1433 0 743 C 468.002 1716.01 t 0 r /Helvetica findfont 80.0434 sf 0 0 m (WDB1LCR/VR2) show NC gr 
 gsave  2245 1433 0 743 C 559.319 1632.3 t 0 r /Helvetica findfont 60.9855 sf 0 0 m (HighMeff) show NC gr 
 gsave  2245 1433 0 743 C 1198.54 1993.76 t 0 r /Helvetica findfont 80.0434 sf 0 0 m (Data) show NC gr  6 lw 1139 2030 m 12 Y s 1139 1996 m -12 Y s 1139 2042 m cl s 1139 1984 m cl s 3 lw 1139 2013 m20 6 lw
 gsave  2245 1433 0 743 C 1198.54 1898.64 t 0 r /Helvetica findfont 80.0434 sf 0 0 m (Total SM) show NC gr  3 lw cs 0 0 0 P04 setcolor 1096 1883 m 87 X 67 Y -87 X FA 6 lw black 12 lw 1096 1917 m 87 X s
 gsave  2245 1433 0 743 C 1198.54 1799.71 t 0 r /Helvetica findfont 80.0434 sf 0 0 m (W+jets) show NC gr  0.2 0.6 1 c 3 lw 1096 1786 m 87 X 68 Y -87 X f 12 lw 9 lw 1096 1854 m 87 X s 1096 1786 m 87 X s 1183 1786 m 68 Y s 1096 1786 m 68 Y s black
 gsave  2245 1433 0 743 C 1221.37 1704.59 t 0 r /Helvetica findfont 80.0434 sf 0 0 m (t) show NC gr  6 lw 1221 1769 m 23 X s
 gsave  2245 1433 0 743 C 1198.54 1704.59 t 0 r /Helvetica findfont 80.0434 sf 0 0 m (t) show NC gr  0.6 1 0.6 c 3 lw 1096 1689 m 87 X 68 Y -87 X f 6 lw 9 lw 1096 1757 m 87 X s 1096 1689 m 87 X s 1183 1689 m 68 Y s 1096 1689 m 68 Y s black
 gsave  2245 1433 0 743 C 1704.59 1993.76 t 0 r /Helvetica findfont 80.0434 sf 0 0 m (Diboson1l) show NC gr  0.6 0.4 0.8 c 3 lw 1592 1980 m 94 X 67 Y -94 X f 9 lw 1592 2047 m 94 X s 1592 1980 m 94 X s 1686 1980 m 67 Y s 1592 1980 m 67 Y s black
 gsave  2245 1433 0 743 C 1704.59 1898.64 t 0 r /Helvetica findfont 80.0434 sf 0 0 m (Diboson2l) show NC gr  1 0 0 c 3 lw 1592 1883 m 94 X 67 Y -94 X f 9 lw 1592 1950 m 94 X s 1592 1883 m 94 X s 1686 1883 m 67 Y s 1592 1883 m 67 Y s black
 gsave  2245 1433 0 743 C 1704.59 1799.71 t 0 r /Helvetica findfont 80.0434 sf 0 0 m (Single top) show NC gr  0 0.6 0 c 3 lw 1592 1786 m 94 X 68 Y -94 X f 9 lw 1592 1854 m 94 X s 1592 1786 m 94 X s 1686 1786 m 68 Y s 1592 1786 m 68 Y s black
 gsave  2245 1433 0 743 C 1704.59 1704.59 t 0 r /Helvetica findfont 80.0434 sf 0 0 m (Others) show NC gr  1 0.6 0 c 3 lw 1592 1689 m 94 X 68 Y -94 X f 9 lw 1592 1757 m 94 X s 1592 1689 m 94 X s 1686 1689 m 68 Y s 1592 1689 m 68 Y s 1 0 0 c[ 80 20] 0
 sd 12 lw black 1 0 0 c 1246 750 m 706 Y s black[  ] 0 sd 3 lw 1 1 1 c 2245 696 0 22 bf black 1 1 1 c 1774 449 359 266 bf black 1774 449 359 266 bl 1 1 1 c 1774 449 359 266 bf black 1774 449 359 266 bl 359 266 m 1774 X s 359 299 m -33 Y s 408 282 m
 -16 Y s 458 282 m -16 Y s 507 282 m -16 Y s 556 282 m -16 Y s 606 282 m -16 Y s 655 299 m -33 Y s 704 282 m -16 Y s 753 282 m -16 Y s 803 282 m -16 Y s 852 282 m -16 Y s 901 282 m -16 Y s 950 299 m -33 Y s 1000 282 m -16 Y s 1049 282 m -16 Y s 1098
 282 m -16 Y s 1147 282 m -16 Y s 1197 282 m -16 Y s 1246 299 m -33 Y s 1295 282 m -16 Y s 1345 282 m -16 Y s 1394 282 m -16 Y s 1443 282 m -16 Y s 1492 282 m -16 Y s 1542 299 m -33 Y s 1591 282 m -16 Y s 1640 282 m -16 Y s 1689 282 m -16 Y s 1739
 282 m -16 Y s 1788 282 m -16 Y s 1837 299 m -33 Y s 1886 282 m -16 Y s 1936 282 m -16 Y s 1985 282 m -16 Y s 2034 282 m -16 Y s 2084 282 m -16 Y s 2133 299 m -33 Y s
 gsave  2245 696 0 22 C 331.026 156.001 t 0 r /Helvetica findfont 98.9489 sf 0 0 m (0) show NC gr 
 gsave  2245 696 0 22 C 627.807 156.001 t 0 r /Helvetica findfont 98.9489 sf 0 0 m (4) show NC gr 
 gsave  2245 696 0 22 C 920.784 156.001 t 0 r /Helvetica findfont 98.9489 sf 0 0 m (8) show NC gr 
 gsave  2245 696 0 22 C 1190.93 156.001 t 0 r /Helvetica findfont 98.9489 sf 0 0 m (12) show NC gr 
 gsave  2245 696 0 22 C 1487.71 156.001 t 0 r /Helvetica findfont 98.9489 sf 0 0 m (16) show NC gr 
 gsave  2245 696 0 22 C 1780.69 156.001 t 0 r /Helvetica findfont 98.9489 sf 0 0 m (20) show NC gr 
 gsave  2245 696 0 22 C 2077.47 156.001 t 0 r /Helvetica findfont 98.9489 sf 0 0 m (24) show NC gr 
 gsave  2245 696 0 22 C 1856.79 53.2685 t 0 r /Helvetica findfont 98.9489 sf 0 0 m ( Signif) show NC gr 
 gsave  2245 696 0 22 C 1723.62 98.9272 t 0 r /Helvetica findfont 64.6973 sf 0 0 m (miss) show NC gr 
 gsave  2245 696 0 22 C 1723.62 22.8294 t 0 r /Helvetica findfont 64.6973 sf 0 0 m (T) show NC gr 
 gsave  2245 696 0 22 C 1658.93 53.2685 t 0 r /Helvetica findfont 98.9489 sf 0 0 m (E) show NC gr  359 715 m 1774 X s 359 682 m 33 Y s 408 698 m 17 Y s 458 698 m 17 Y s 507 698 m 17 Y s 556 698 m 17 Y s 606 698 m 17 Y s 655 682 m 33 Y s 704 698 m 17
 Y s 753 698 m 17 Y s 803 698 m 17 Y s 852 698 m 17 Y s 901 698 m 17 Y s 950 682 m 33 Y s 1000 698 m 17 Y s 1049 698 m 17 Y s 1098 698 m 17 Y s 1147 698 m 17 Y s 1197 698 m 17 Y s 1246 682 m 33 Y s 1295 698 m 17 Y s 1345 698 m 17 Y s 1394 698 m 17 Y
 s 1443 698 m 17 Y s 1492 698 m 17 Y s 1542 682 m 33 Y s 1591 698 m 17 Y s 1640 698 m 17 Y s 1689 698 m 17 Y s 1739 698 m 17 Y s 1788 698 m 17 Y s 1837 682 m 33 Y s 1886 698 m 17 Y s 1936 698 m 17 Y s 1985 698 m 17 Y s 2034 698 m 17 Y s 2084 698 m 17
 Y s 2133 682 m 33 Y s 359 266 m 449 Y s 403 266 m -44 X s 381 305 m -22 X s 381 344 m -22 X s 381 383 m -22 X s 381 422 m -22 X s 403 461 m -44 X s 381 500 m -22 X s 381 539 m -22 X s 381 578 m -22 X s 381 617 m -22 X s 403 656 m -44 X s 403 656 m
 -44 X s 381 695 m -22 X s
 gsave  2245 696 0 22 C 258.733 228.294 t 0 r /Helvetica findfont 102.755 sf 0 0 m (0) show NC gr 
 gsave  2245 696 0 22 C 273.952 422.343 t 0 r /Helvetica findfont 102.755 sf 0 0 m (1) show NC gr 
 gsave  2245 696 0 22 C 258.733 616.393 t 0 r /Helvetica findfont 102.755 sf 0 0 m (2) show NC gr 
 gsave  2245 696 0 22 C 140.781 266.343 t 90 r /Helvetica findfont 102.755 sf 0 0 m (Data / SM) show NC gr  2133 266 m 449 Y s 2089 266 m 44 X s 2111 305 m 22 X s 2111 344 m 22 X s 2111 383 m 22 X s 2111 422 m 22 X s 2089 461 m 44 X s 2111 500 m 22 X
 s 2111 539 m 22 X s 2111 578 m 22 X s 2111 617 m 22 X s 2089 656 m 44 X s 2089 656 m 44 X s 2111 695 m 22 X s 0.4 0.4 0.6 c 6 lw black 3 lw cs 0 0 0 P04 setcolor 359 266 m 258 Y 296 X -44 Y 295 X -4 Y 296 X 3 Y 296 X 3 Y 295 X 47 Y 296 X -263 Y 127
 Y -296 X 46 Y -295 X 4 Y -296 X 3 Y -296 X -4 Y -295 X -44 Y -296 X -132 Y FA 6 lw black 507 377 m 148 Y s 507 525 m cl s 507 377 m -72 Y s 507 305 m cl s 803 473 m 29 Y s 803 502 m cl s 803 473 m -26 Y s 803 447 m cl s 1098 455 m 14 Y s 1098 469 m
 cl s 1098 455 m -14 Y s 1098 441 m cl s 1394 496 m 14 Y s 1394 510 m cl s 1394 496 m -13 Y s 1394 483 m cl s 1689 473 m 27 Y s 1689 500 m cl s 1689 473 m -24 Y s 1689 449 m cl s 1985 458 m 152 Y s 1985 610 m cl s 1985 458 m -92 Y s 1985 366 m cl s 1
 1 1 c black 3 lw 507 377 803 473 1098 455 1394 496 1689 473 1985 458 6 { m20} R 6 lw 3 lw 359 266 m 1774 X s 359 299 m -33 Y s 408 282 m -16 Y s 458 282 m -16 Y s 507 282 m -16 Y s 556 282 m -16 Y s 606 282 m -16 Y s 655 299 m -33 Y s 704 282 m -16
 Y s 753 282 m -16 Y s 803 282 m -16 Y s 852 282 m -16 Y s 901 282 m -16 Y s 950 299 m -33 Y s 1000 282 m -16 Y s 1049 282 m -16 Y s 1098 282 m -16 Y s 1147 282 m -16 Y s 1197 282 m -16 Y s 1246 299 m -33 Y s 1295 282 m -16 Y s 1345 282 m -16 Y s
 1394 282 m -16 Y s 1443 282 m -16 Y s 1492 282 m -16 Y s 1542 299 m -33 Y s 1591 282 m -16 Y s 1640 282 m -16 Y s 1689 282 m -16 Y s 1739 282 m -16 Y s 1788 282 m -16 Y s 1837 299 m -33 Y s 1886 282 m -16 Y s 1936 282 m -16 Y s 1985 282 m -16 Y s
 2034 282 m -16 Y s 2084 282 m -16 Y s 2133 299 m -33 Y s 359 715 m 1774 X s 359 682 m 33 Y s 408 698 m 17 Y s 458 698 m 17 Y s 507 698 m 17 Y s 556 698 m 17 Y s 606 698 m 17 Y s 655 682 m 33 Y s 704 698 m 17 Y s 753 698 m 17 Y s 803 698 m 17 Y s 852
 698 m 17 Y s 901 698 m 17 Y s 950 682 m 33 Y s 1000 698 m 17 Y s 1049 698 m 17 Y s 1098 698 m 17 Y s 1147 698 m 17 Y s 1197 698 m 17 Y s 1246 682 m 33 Y s 1295 698 m 17 Y s 1345 698 m 17 Y s 1394 698 m 17 Y s 1443 698 m 17 Y s 1492 698 m 17 Y s 1542
 682 m 33 Y s 1591 698 m 17 Y s 1640 698 m 17 Y s 1689 698 m 17 Y s 1739 698 m 17 Y s 1788 698 m 17 Y s 1837 682 m 33 Y s 1886 698 m 17 Y s 1936 698 m 17 Y s 1985 698 m 17 Y s 2034 698 m 17 Y s 2084 698 m 17 Y s 2133 682 m 33 Y s 359 266 m 449 Y s
 403 266 m -44 X s 381 305 m -22 X s 381 344 m -22 X s 381 383 m -22 X s 381 422 m -22 X s 403 461 m -44 X s 381 500 m -22 X s 381 539 m -22 X s 381 578 m -22 X s 381 617 m -22 X s 403 656 m -44 X s 403 656 m -44 X s 381 695 m -22 X s 2133 266 m 449
 Y s 2089 266 m 44 X s 2111 305 m 22 X s 2111 344 m 22 X s 2111 383 m 22 X s 2111 422 m 22 X s 2089 461 m 44 X s 2111 500 m 22 X s 2111 539 m 22 X s 2111 578 m 22 X s 2111 617 m 22 X s 2089 656 m 44 X s 2089 656 m 44 X s 2111 695 m 22 X s 9 lw 0.95
 0.95 0.95 c black 368 461 m 869 X s 1237 461 m 869 X s 2106 461 m 18 X s
 gr  gr showpage
end
%%EOF
