%!PS-Adobe-2.0 EPSF-2.0
%%BoundingBox:  0 0 567 544
%%Title: : c1
%%Creator: ROOT Version 6.22/06
%%CreationDate: Thu Sep  1 01:53:27 2022
%%DocumentNeededResources: ProcSet (FontSetInit)
%%EndComments
%%BeginProlog
80 dict begin
/s {stroke} def /l {lineto} def /m {moveto} def /t {translate} def
/r {rotate} def /rl {roll}  def /R {repeat} def
/d {rlineto} def /rm {rmoveto} def /gr {grestore} def /f {eofill} def
/c {setrgbcolor} def /black {0 setgray} def /sd {setdash} def
/cl {closepath} def /sf {scalefont setfont} def /lw {setlinewidth} def
/box {m dup 0 exch d exch 0 d 0 exch neg d cl} def
/NC{systemdict begin initclip end}def/C{NC box clip newpath}def
/bl {box s} def /bf {gsave box gsave f grestore 1 lw [] 0 sd s grestore} def /Y { 0 exch d} def /X { 0 d} def 
/K {{pop pop 0 moveto} exch kshow} bind def
/ita {/ang 15 def gsave [1 0 ang dup sin exch cos div 1 0 0] concat} def 
/mp {newpath /y exch def /x exch def} def
/side {[w .77 mul w .23 mul] .385 w mul sd w 0 l currentpoint t -144 r} def
/mr {mp x y w2 0 360 arc} def /m24 {mr s} def /m20 {mr f} def
/mb {mp x y w2 add m w2 neg 0 d 0 w neg d w 0 d 0 w d cl} def
/mt {mp x y w2 add m w2 neg w neg d w 0 d cl} def
/w4 {w 4 div} def
/w6 {w 6 div} def
/w8 {w 8 div} def
/m21 {mb f} def /m25 {mb s} def /m22 {mt f} def /m26{mt s} def
/m23 {mp x y w2 sub m w2 w d w neg 0 d cl f} def
/m27 {mp x y w2 add m w3 neg w2 neg d w3 w2 neg d w3 w2 d cl s} def
/m28 {mp x w2 sub y w2 sub w3 add m w3 0 d  0 w3 neg d w3 0 d 0 w3 d w3 0 d  0 w3 d w3 neg 0 d 0 w3 d w3 neg 0 d 0 w3 neg d w3 neg 0 d cl s } def
/m29 {mp gsave x w2 sub y w2 add w3 sub m currentpoint t 4 {side} repeat cl fill gr} def
/m30 {mp gsave x w2 sub y w2 add w3 sub m currentpoint t 4 {side} repeat cl s gr} def
/m31 {mp x y w2 sub m 0 w d x w2 sub y m w 0 d x w2 .707 mul sub y w2 .707 mul add m w 1.44 div w 1.44 div neg d x w2 .707 mul sub y w2 .707 mul sub m w 1.44 div w 1.44 div d s} def
/m32 {mp x y w2 sub m w2 w d w neg 0 d cl s} def
/m33 {mp x y w2 add m w3 neg w2 neg d w3 w2 neg d w3 w2 d cl f} def
/m34 {mp x w2 sub y w2 sub w3 add m w3 0 d  0 w3 neg d w3 0 d 0 w3 d w3 0 d  0 w3 d w3 neg 0 d 0 w3 d w3 neg 0 d 0 w3 neg d w3 neg 0 d cl f } def
/m35 {mp x y w2 add m w2 neg w2 neg d w2 w2 neg d w2 w2 d w2 neg w2 d x y w2 sub m 0 w d x w2 sub y m w 0 d s} def
/m36 {mb x w2 sub y w2 add m w w neg d x w2 sub y w2 sub m w w d s} def
/m37 {mp x y m w4 neg w2 d w4 neg w2 neg d w2 0 d  w4 neg w2 neg d w2 0 d w4 neg w2 d w2 0 d w4 neg w2 d w4 neg w2 neg d cl s} def
/m38 {mp x w4 sub y w2 add m w4 neg w4 neg d 0 w2 neg d w4 w4 neg d w2 0 d w4 w4 d 0 w2 d w4 neg w4 d w2 neg 0 d x y w2 sub m 0 w d x w2 sub y m w 0 d cl s} def
/m39 {mp x y m w4 neg w2 d w4 neg w2 neg d w2 0 d  w4 neg w2 neg d w2 0 d w4 neg w2 d w2 0 d w4 neg w2 d w4 neg w2 neg d cl f} def
/m40 {mp x y m w4 w2 d w4 w4 neg d w2 neg w4 neg d w2 w4 neg d w4 neg w4 neg d w4 neg w2 d w4 neg w2 neg d w4 neg w4 d w2 w4 d w2 neg w4 d w4 w4 d w4 w2 neg d cl s} def
/m41 {mp x y m w4 w2 d w4 w4 neg d w2 neg w4 neg d w2 w4 neg d w4 neg w4 neg d w4 neg w2 d w4 neg w2 neg d w4 neg w4 d w2 w4 d w2 neg w4 d w4 w4 d w4 w2 neg d cl f} def
/m42 {mp x y w2 add m w8 neg w2 -3 4 div mul d w2 -3 4 div mul w8 neg d w2 3 4 div mul w8 neg d w8 w2 -3 4 div mul d w8 w2 3 4 div mul d w2 3 4 div mul w8 d w2 -3 4 div mul w8 d w8 neg w2 3 4 div mul d cl s} def
/m43 {mp x y w2 add m w8 neg w2 -3 4 div mul d w2 -3 4 div mul w8 neg d w2 3 4 div mul w8 neg d w8 w2 -3 4 div mul d w8 w2 3 4 div mul d w2 3 4 div mul w8 d w2 -3 4 div mul w8 d w8 neg w2 3 4 div mul d cl f} def
/m44 {mp x y m w6 neg w2 d w2 2 3 div mul 0 d w6 neg w2 neg d w2 w6 d 0 w2 -2 3 div mul d w2 neg w6 d w6 w2 neg d w2 -2 3 div mul 0 d w6 w2 d w2 neg w6 neg d 0 w2 2 3 div mul d w2 w6 neg d cl s} def
/m45 {mp x y m w6 neg w2 d w2 2 3 div mul 0 d w6 neg w2 neg d w2 w6 d 0 w2 -2 3 div mul d w2 neg w6 d w6 w2 neg d w2 -2 3 div mul 0 d w6 w2 d w2 neg w6 neg d 0 w2 2 3 div mul d w2 w6 neg d cl f} def
/m46 {mp x y w4 add m w4 neg w4 d w4 neg w4 neg d  w4 w4 neg d w4 neg w4 neg d w4 w4 neg d w4 w4 d w4 w4 neg d w4 w4 d w4 neg w4 d w4 w4 d w4 neg w4 d w4 neg w4 neg d cl s} def
/m47 {mp x y w4 add m w4 neg w4 d w4 neg w4 neg d w4 w4 neg d w4 neg w4 neg d  w4 w4 neg d w4 w4 d w4 w4 neg d w4 w4 d w4 neg w4 d w4 w4 d w4 neg w4 d w4 neg w4 neg d cl f} def
/m48 {mp x y w4 add m w4 neg w4 d w4 neg w4 neg d w4 w4 neg d  w4 neg w4 neg d w4 w4 neg d w4 w4 d w4 w4 neg d w4 w4 d w4 neg w4 d w4 w4 d w4 neg w4 d w4 neg w4 neg d  w4 w4 neg d w4 neg w4 neg d w4 neg w4 d w4 w4 d cl f} def
/m49 {mp x w2 sub w3 add y w2 sub w3 add m  0 w3 neg d w3 0 d 0 w3 d w3 0 d 0 w3 d w3 neg 0 d 0 w3 d w3 neg 0 d 0 w3 neg d w3 neg 0 d 0 w3 neg d w3 0 d 0 w3 d w3 0 d 0 w3 neg d w3 neg 0 d cl f } def
/m2 {mp x y w2 sub m 0 w d x w2 sub y m w 0 d s} def
/m5 {mp x w2 .707 mul sub y w2 .707 mul sub m w 1.44 div w 1.44 div d x w2 .707 mul sub y w2 .707 mul add m w 1.44 div w 1.44 div neg d s} def
%%IncludeResource: ProcSet (FontSetInit)
%%IncludeResource: font Times-Roman
%%IncludeResource: font Times-Italic
%%IncludeResource: font Times-Bold
%%IncludeResource: font Times-BoldItalic
%%IncludeResource: font Helvetica
%%IncludeResource: font Helvetica-Oblique
%%IncludeResource: font Helvetica-Bold
%%IncludeResource: font Helvetica-BoldOblique
%%IncludeResource: font Courier
%%IncludeResource: font Courier-Oblique
%%IncludeResource: font Courier-Bold
%%IncludeResource: font Courier-BoldOblique
%%IncludeResource: font Symbol
%%IncludeResource: font ZapfDingbats
/reEncode {exch findfont dup length dict begin {1 index /FID eq  {pop pop} {def} ifelse } forall /Encoding exch def currentdict end dup /FontName get exch definefont pop } def [/Times-Bold /Times-Italic /Times-BoldItalic /Helvetica /Helvetica-Oblique
 /Helvetica-Bold /Helvetica-BoldOblique /Courier /Courier-Oblique /Courier-Bold /Courier-BoldOblique /Times-Roman /AvantGarde-Book /AvantGarde-BookOblique /AvantGarde-Demi /AvantGarde-DemiOblique /Bookman-Demi /Bookman-DemiItalic /Bookman-Light
 /Bookman-LightItalic /Helvetica-Narrow /Helvetica-Narrow-Bold /Helvetica-Narrow-BoldOblique /Helvetica-Narrow-Oblique /NewCenturySchlbk-Roman /NewCenturySchlbk-Bold /NewCenturySchlbk-BoldItalic /NewCenturySchlbk-Italic /Palatino-Bold
 /Palatino-BoldItalic /Palatino-Italic /Palatino-Roman ] {ISOLatin1Encoding reEncode } forall
%%EndProlog
%%BeginSetup
%%EndSetup
newpath  gsave  .25 .25 scale  gsave  0 0 t black[  ] 0 sd 3 lw 1 1 1 c 2268 2176 0 0 bf black 1 1 1 c 2245 1433 0 743 bf black 1 1 1 c 1774 1355 359 750 bf black 1774 1355 359 750 bl 1 1 1 c 1774 1355 359 750 bf black 1774 1355 359 750 bl 359 750 m
 1774 X s 359 784 m -34 Y s 418 767 m -17 Y s 477 767 m -17 Y s 537 767 m -17 Y s 596 767 m -17 Y s 655 767 m -17 Y s 714 784 m -34 Y s 773 767 m -17 Y s 832 767 m -17 Y s 891 767 m -17 Y s 950 767 m -17 Y s 1010 767 m -17 Y s 1069 784 m -34 Y s 1128
 767 m -17 Y s 1187 767 m -17 Y s 1246 767 m -17 Y s 1305 767 m -17 Y s 1364 767 m -17 Y s 1423 784 m -34 Y s 1482 767 m -17 Y s 1542 767 m -17 Y s 1601 767 m -17 Y s 1660 767 m -17 Y s 1719 767 m -17 Y s 1778 784 m -34 Y s 1837 767 m -17 Y s 1896
 767 m -17 Y s 1955 767 m -17 Y s 2015 767 m -17 Y s 2074 767 m -17 Y s 2133 784 m -34 Y s
 gsave  2245 1433 0 743 C -2012.79 213.074 t 0 r /Helvetica findfont 202.014 sf 0 0 m (obs_x_WDB1LVR1boostedmTLowMeffEM_mt) show NC gr  359 2105 m 1774 X s 359 2071 m 34 Y s 418 2088 m 17 Y s 477 2088 m 17 Y s 537 2088 m 17 Y s 596 2088 m 17 Y s 655
 2088 m 17 Y s 714 2071 m 34 Y s 773 2088 m 17 Y s 832 2088 m 17 Y s 891 2088 m 17 Y s 950 2088 m 17 Y s 1010 2088 m 17 Y s 1069 2071 m 34 Y s 1128 2088 m 17 Y s 1187 2088 m 17 Y s 1246 2088 m 17 Y s 1305 2088 m 17 Y s 1364 2088 m 17 Y s 1423 2071 m
 34 Y s 1482 2088 m 17 Y s 1542 2088 m 17 Y s 1601 2088 m 17 Y s 1660 2088 m 17 Y s 1719 2088 m 17 Y s 1778 2071 m 34 Y s 1837 2088 m 17 Y s 1896 2088 m 17 Y s 1955 2088 m 17 Y s 2015 2088 m 17 Y s 2074 2088 m 17 Y s 2133 2071 m 34 Y s 359 750 m 1355
 Y s 391 750 m -32 X s 391 763 m -32 X s 391 774 m -32 X s 391 783 m -32 X s 423 792 m -64 X s
 gsave  2245 1433 0 743 C 312.001 791.418 t 0 r /Helvetica findfont 60.9855 sf 0 0 m (1) show NC gr 
 gsave  2245 1433 0 743 C 277.757 791.418 t 0 r /Symbol findfont 60.9855 sf 0 0 m (-) show NC gr 
 gsave  2245 1433 0 743 C 175.025 753.369 t 0 r /Helvetica findfont 95.2898 sf 0 0 m (10) show NC gr  391 848 m -32 X s 391 881 m -32 X s 391 905 m -32 X s 391 923 m -32 X s 391 938 m -32 X s 391 950 m -32 X s 391 961 m -32 X s 391 971 m -32 X s 423
 980 m -64 X s
 gsave  2245 1433 0 743 C 300.587 943.614 t 0 r /Helvetica findfont 95.2898 sf 0 0 m (1) show NC gr  391 1036 m -32 X s 391 1069 m -32 X s 391 1092 m -32 X s 391 1111 m -32 X s 391 1125 m -32 X s 391 1138 m -32 X s 391 1149 m -32 X s 391 1158 m -32 X
 s 423 1167 m -64 X s
 gsave  2245 1433 0 743 C 232.099 1133.86 t 0 r /Helvetica findfont 95.2898 sf 0 0 m (10) show NC gr  391 1224 m -32 X s 391 1257 m -32 X s 391 1280 m -32 X s 391 1298 m -32 X s 391 1313 m -32 X s 391 1326 m -32 X s 391 1336 m -32 X s 391 1346 m -32
 X s 423 1355 m -64 X s
 gsave  2245 1433 0 743 C 300.587 1354.54 t 0 r /Helvetica findfont 60.9855 sf 0 0 m (2) show NC gr 
 gsave  2245 1433 0 743 C 197.854 1316.49 t 0 r /Helvetica findfont 95.2898 sf 0 0 m (10) show NC gr  391 1411 m -32 X s 391 1444 m -32 X s 391 1468 m -32 X s 391 1486 m -32 X s 391 1501 m -32 X s 391 1513 m -32 X s 391 1524 m -32 X s 391 1534 m -32
 X s 423 1542 m -64 X s
 gsave  2245 1433 0 743 C 300.587 1544.79 t 0 r /Helvetica findfont 60.9855 sf 0 0 m (3) show NC gr 
 gsave  2245 1433 0 743 C 197.854 1502.93 t 0 r /Helvetica findfont 95.2898 sf 0 0 m (10) show NC gr  391 1599 m -32 X s 391 1632 m -32 X s 391 1655 m -32 X s 391 1673 m -32 X s 391 1688 m -32 X s 391 1701 m -32 X s 391 1712 m -32 X s 391 1721 m -32
 X s 423 1730 m -64 X s
 gsave  2245 1433 0 743 C 300.587 1727.42 t 0 r /Helvetica findfont 60.9855 sf 0 0 m (4) show NC gr 
 gsave  2245 1433 0 743 C 197.854 1689.37 t 0 r /Helvetica findfont 95.2898 sf 0 0 m (10) show NC gr  391 1786 m -32 X s 391 1819 m -32 X s 391 1843 m -32 X s 391 1861 m -32 X s 391 1876 m -32 X s 391 1888 m -32 X s 391 1899 m -32 X s 391 1909 m -32
 X s 423 1917 m -64 X s
 gsave  2245 1433 0 743 C 300.587 1917.67 t 0 r /Helvetica findfont 60.9855 sf 0 0 m (5) show NC gr 
 gsave  2245 1433 0 743 C 197.854 1875.81 t 0 r /Helvetica findfont 95.2898 sf 0 0 m (10) show NC gr  391 1974 m -32 X s 391 2007 m -32 X s 391 2030 m -32 X s 391 2048 m -32 X s 391 2063 m -32 X s 391 2076 m -32 X s 391 2087 m -32 X s 391 2096 m -32
 X s 423 2105 m -64 X s
 gsave  2245 1433 0 743 C 300.587 2107.91 t 0 r /Helvetica findfont 60.9855 sf 0 0 m (6) show NC gr 
 gsave  2245 1433 0 743 C 197.854 2066.06 t 0 r /Helvetica findfont 95.2898 sf 0 0 m (10) show NC gr 
 gsave  2245 1433 0 743 C 152.196 1331.71 t 90 r /Helvetica findfont 106.725 sf 0 0 m (Events / 50 GeV) show NC gr  2133 750 m 1355 Y s 2101 750 m 32 X s 2101 763 m 32 X s 2101 774 m 32 X s 2101 783 m 32 X s 2069 792 m 64 X s 2101 848 m 32 X s 2101
 881 m 32 X s 2101 905 m 32 X s 2101 923 m 32 X s 2101 938 m 32 X s 2101 950 m 32 X s 2101 961 m 32 X s 2101 971 m 32 X s 2069 980 m 64 X s 2101 1036 m 32 X s 2101 1069 m 32 X s 2101 1092 m 32 X s 2101 1111 m 32 X s 2101 1125 m 32 X s 2101 1138 m 32
 X s 2101 1149 m 32 X s 2101 1158 m 32 X s 2069 1167 m 64 X s 2101 1224 m 32 X s 2101 1257 m 32 X s 2101 1280 m 32 X s 2101 1298 m 32 X s 2101 1313 m 32 X s 2101 1326 m 32 X s 2101 1336 m 32 X s 2101 1346 m 32 X s 2069 1355 m 64 X s 2101 1411 m 32 X
 s 2101 1444 m 32 X s 2101 1468 m 32 X s 2101 1486 m 32 X s 2101 1501 m 32 X s 2101 1513 m 32 X s 2101 1524 m 32 X s 2101 1534 m 32 X s 2069 1542 m 64 X s 2101 1599 m 32 X s 2101 1632 m 32 X s 2101 1655 m 32 X s 2101 1673 m 32 X s 2101 1688 m 32 X s
 2101 1701 m 32 X s 2101 1712 m 32 X s 2101 1721 m 32 X s 2069 1730 m 64 X s 2101 1786 m 32 X s 2101 1819 m 32 X s 2101 1843 m 32 X s 2101 1861 m 32 X s 2101 1876 m 32 X s 2101 1888 m 32 X s 2101 1899 m 32 X s 2101 1909 m 32 X s 2069 1917 m 64 X s
 2101 1974 m 32 X s 2101 2007 m 32 X s 2101 2030 m 32 X s 2101 2048 m 32 X s 2101 2063 m 32 X s 2101 2076 m 32 X s 2101 2087 m 32 X s 2101 2096 m 32 X s 2069 2105 m 64 X s 6 lw 891 1204 m 10 Y s 891 1214 m cl s 891 1173 m -11 Y s 891 1162 m cl s 1246
 1126 m 27 Y s 1246 1153 m cl s 1246 1095 m -30 Y s 1246 1065 m cl s 1955 1084 m 40 Y s 1955 1124 m cl s 1955 1054 m -49 Y s 1955 1005 m cl s 1 1 1 c black 3 lw /w 37 def /w2 {w 2 div} def /w3 {w 3 div} def 537 1462 891 1188 1246 1111 3 { m20} R 6 lw
 3 lw 1955 1069 m20 6 lw 12 lw 1 1 1 c black 359 750 m 715 Y s 359 1465 m 355 X -194 Y 355 X -149 Y 354 X -68 Y 355 X -54 Y 355 X -250 Y s 0.2 0.6 1 c 9 lw black 3 lw 0.2 0.6 1 c 359 750 m 715 Y 355 X -194 Y 355 X -149 Y 354 X -68 Y 355 X -54 Y 355 X
 -250 Y f 9 lw 0.6 1 0.6 c black 3 lw 0.6 1 0.6 c 359 750 m 650 Y 355 X -291 Y 355 X -28 Y 354 X -146 Y 355 X -26 Y 355 X -159 Y f 9 lw 0.6 0.4 0.8 c black 3 lw 0.6 0.4 0.8 c 359 750 m 591 Y 355 X -274 Y 709 X -144 Y 355 X -57 Y 355 X -116 Y f 9 lw 1
 0 0 c black 3 lw 1 0 0 c 359 750 m 521 Y 355 X -229 Y 355 X 18 Y 354 X -155 Y 355 X -76 Y 355 X -79 Y f 9 lw 0 0.6 0 c black 3 lw 0 0.6 0 c 359 750 m 513 Y 355 X -295 Y 355 X 64 Y 354 X -281 Y 355 X -1 Y f 9 lw 1 0.6 0 c black 3 lw 1 0.6 0 c 359 750
 m 219 Y 355 X -161 Y 355 X 214 Y 354 X -272 Y f 9 lw black 3 lw 1 0.6 0 c 359 750 m 194 Y 355 X -194 Y 355 X 270 Y 354 X -270 Y f 9 lw black 3 lw 1 0.6 0 c 359 750 m 194 Y 355 X -194 Y 355 X 270 Y 354 X -270 Y f 9 lw black 1 0.6 0 c black 3 lw 1 lw
 << /PatternType 1 /PaintType 2 /TilingType 1 /BBox [ 0 0 100 100 ] /XStep 100 /YStep 100 /PaintProc { begin gsave 0 0 m 100 100 l s gr end } >> [ 0.24 0 0 0.24 0 0 ] makepattern /P04 exch def /cs {[/Pattern /DeviceRGB] setcolorspace} def /FA {f
 [/DeviceRGB] setcolorspace} def cs 0 0 0 P04 setcolor 359 750 m 722 Y 355 X -157 Y 355 X -166 Y 354 X -65 Y 355 X -38 Y 355 X -296 Y 132 Y -355 X 124 Y -355 X 76 Y -354 X 84 Y -355 X 290 Y -355 X -706 Y FA 3 lw black 12 lw 1 1 1 c black 359 750 m
 715 Y s 359 1465 m 355 X -194 Y 355 X -149 Y 354 X -68 Y 355 X -54 Y 355 X -250 Y s 6 lw 891 1204 m 10 Y s 891 1214 m cl s 891 1173 m -11 Y s 891 1162 m cl s 1246 1126 m 27 Y s 1246 1153 m cl s 1246 1095 m -30 Y s 1246 1065 m cl s 1955 1084 m 40 Y s
 1955 1124 m cl s 1955 1054 m -49 Y s 1955 1005 m cl s 1 1 1 c black 3 lw 537 1462 891 1188 1246 1111 3 { m20} R 6 lw 3 lw 1955 1069 m20 6 lw 3 lw 359 750 m 1774 X s 359 784 m -34 Y s 418 767 m -17 Y s 477 767 m -17 Y s 537 767 m -17 Y s 596 767 m
 -17 Y s 655 767 m -17 Y s 714 784 m -34 Y s 773 767 m -17 Y s 832 767 m -17 Y s 891 767 m -17 Y s 950 767 m -17 Y s 1010 767 m -17 Y s 1069 784 m -34 Y s 1128 767 m -17 Y s 1187 767 m -17 Y s 1246 767 m -17 Y s 1305 767 m -17 Y s 1364 767 m -17 Y s
 1423 784 m -34 Y s 1482 767 m -17 Y s 1542 767 m -17 Y s 1601 767 m -17 Y s 1660 767 m -17 Y s 1719 767 m -17 Y s 1778 784 m -34 Y s 1837 767 m -17 Y s 1896 767 m -17 Y s 1955 767 m -17 Y s 2015 767 m -17 Y s 2074 767 m -17 Y s 2133 784 m -34 Y s
 359 2105 m 1774 X s 359 2071 m 34 Y s 418 2088 m 17 Y s 477 2088 m 17 Y s 537 2088 m 17 Y s 596 2088 m 17 Y s 655 2088 m 17 Y s 714 2071 m 34 Y s 773 2088 m 17 Y s 832 2088 m 17 Y s 891 2088 m 17 Y s 950 2088 m 17 Y s 1010 2088 m 17 Y s 1069 2071 m
 34 Y s 1128 2088 m 17 Y s 1187 2088 m 17 Y s 1246 2088 m 17 Y s 1305 2088 m 17 Y s 1364 2088 m 17 Y s 1423 2071 m 34 Y s 1482 2088 m 17 Y s 1542 2088 m 17 Y s 1601 2088 m 17 Y s 1660 2088 m 17 Y s 1719 2088 m 17 Y s 1778 2071 m 34 Y s 1837 2088 m 17
 Y s 1896 2088 m 17 Y s 1955 2088 m 17 Y s 2015 2088 m 17 Y s 2074 2088 m 17 Y s 2133 2071 m 34 Y s 359 750 m 1355 Y s 391 750 m -32 X s 391 763 m -32 X s 391 774 m -32 X s 391 783 m -32 X s 423 792 m -64 X s 391 848 m -32 X s 391 881 m -32 X s 391
 905 m -32 X s 391 923 m -32 X s 391 938 m -32 X s 391 950 m -32 X s 391 961 m -32 X s 391 971 m -32 X s 423 980 m -64 X s 391 1036 m -32 X s 391 1069 m -32 X s 391 1092 m -32 X s 391 1111 m -32 X s 391 1125 m -32 X s 391 1138 m -32 X s 391 1149 m
 -32 X s 391 1158 m -32 X s 423 1167 m -64 X s 391 1224 m -32 X s 391 1257 m -32 X s 391 1280 m -32 X s 391 1298 m -32 X s 391 1313 m -32 X s 391 1326 m -32 X s 391 1336 m -32 X s 391 1346 m -32 X s 423 1355 m -64 X s 391 1411 m -32 X s 391 1444 m
 -32 X s 391 1468 m -32 X s 391 1486 m -32 X s 391 1501 m -32 X s 391 1513 m -32 X s 391 1524 m -32 X s 391 1534 m -32 X s 423 1542 m -64 X s 391 1599 m -32 X s 391 1632 m -32 X s 391 1655 m -32 X s 391 1673 m -32 X s 391 1688 m -32 X s 391 1701 m
 -32 X s 391 1712 m -32 X s 391 1721 m -32 X s 423 1730 m -64 X s 391 1786 m -32 X s 391 1819 m -32 X s 391 1843 m -32 X s 391 1861 m -32 X s 391 1876 m -32 X s 391 1888 m -32 X s 391 1899 m -32 X s 391 1909 m -32 X s 423 1917 m -64 X s 391 1974 m
 -32 X s 391 2007 m -32 X s 391 2030 m -32 X s 391 2048 m -32 X s 391 2063 m -32 X s 391 2076 m -32 X s 391 2087 m -32 X s 391 2096 m -32 X s 423 2105 m -64 X s 2133 750 m 1355 Y s 2101 750 m 32 X s 2101 763 m 32 X s 2101 774 m 32 X s 2101 783 m 32 X
 s 2069 792 m 64 X s 2101 848 m 32 X s 2101 881 m 32 X s 2101 905 m 32 X s 2101 923 m 32 X s 2101 938 m 32 X s 2101 950 m 32 X s 2101 961 m 32 X s 2101 971 m 32 X s 2069 980 m 64 X s 2101 1036 m 32 X s 2101 1069 m 32 X s 2101 1092 m 32 X s 2101 1111
 m 32 X s 2101 1125 m 32 X s 2101 1138 m 32 X s 2101 1149 m 32 X s 2101 1158 m 32 X s 2069 1167 m 64 X s 2101 1224 m 32 X s 2101 1257 m 32 X s 2101 1280 m 32 X s 2101 1298 m 32 X s 2101 1313 m 32 X s 2101 1326 m 32 X s 2101 1336 m 32 X s 2101 1346 m
 32 X s 2069 1355 m 64 X s 2101 1411 m 32 X s 2101 1444 m 32 X s 2101 1468 m 32 X s 2101 1486 m 32 X s 2101 1501 m 32 X s 2101 1513 m 32 X s 2101 1524 m 32 X s 2101 1534 m 32 X s 2069 1542 m 64 X s 2101 1599 m 32 X s 2101 1632 m 32 X s 2101 1655 m 32
 X s 2101 1673 m 32 X s 2101 1688 m 32 X s 2101 1701 m 32 X s 2101 1712 m 32 X s 2101 1721 m 32 X s 2069 1730 m 64 X s 2101 1786 m 32 X s 2101 1819 m 32 X s 2101 1843 m 32 X s 2101 1861 m 32 X s 2101 1876 m 32 X s 2101 1888 m 32 X s 2101 1899 m 32 X
 s 2101 1909 m 32 X s 2069 1917 m 64 X s 2101 1974 m 32 X s 2101 2007 m 32 X s 2101 2030 m 32 X s 2101 2048 m 32 X s 2101 2063 m 32 X s 2101 2076 m 32 X s 2101 2087 m 32 X s 2101 2096 m 32 X s 2069 2105 m 64 X s
 gsave  2245 1433 0 743 C 1023.52 1872.01 t 0 r /Helvetica findfont 45.7391 sf 0 0 m (\2551) show NC gr 
 gsave  2245 1433 0 743 C 494.636 1841.57 t 0 r /Helvetica findfont 68.6087 sf 0 0 m ( = 13 TeV, 139 fb) show NC gr 
 gsave  2245 1433 0 743 C 460.392 1841.57 t 0 r /Helvetica findfont 68.6087 sf 0 0 m (s) show NC gr  6 lw 438 1880 m 7 -42 d s 3 lw 445 1838 m 8 61 d s 453 1899 m 42 X s
 gsave  2245 1433 0 743 C 426.148 1959.52 t 0 r /Helvetica-BoldOblique findfont 80.0434 sf 0 0 m (ATLAS) show NC gr 
 gsave  2245 1433 0 743 C 715.32 1967.13 t 0 r /Helvetica findfont 72.4203 sf 0 0 m (Preliminary) show NC gr 
 gsave  2245 1433 0 743 C 513.661 1716.01 t 0 r /Helvetica findfont 80.0434 sf 0 0 m (WDB1LVR1) show NC gr 
 gsave  2245 1433 0 743 C 559.319 1632.3 t 0 r /Helvetica findfont 60.9855 sf 0 0 m (LowMeff) show NC gr 
 gsave  2245 1433 0 743 C 1198.54 1993.76 t 0 r /Helvetica findfont 80.0434 sf 0 0 m (Data) show NC gr  6 lw 1139 2030 m 12 Y s 1139 1996 m -12 Y s 1139 2042 m cl s 1139 1984 m cl s 3 lw 1139 2013 m20 6 lw
 gsave  2245 1433 0 743 C 1198.54 1898.64 t 0 r /Helvetica findfont 80.0434 sf 0 0 m (Total SM) show NC gr  3 lw cs 0 0 0 P04 setcolor 1096 1883 m 87 X 67 Y -87 X FA 6 lw black 12 lw 1096 1917 m 87 X s
 gsave  2245 1433 0 743 C 1198.54 1799.71 t 0 r /Helvetica findfont 80.0434 sf 0 0 m (W+jets) show NC gr  0.2 0.6 1 c 3 lw 1096 1786 m 87 X 68 Y -87 X f 12 lw 9 lw 1096 1854 m 87 X s 1096 1786 m 87 X s 1183 1786 m 68 Y s 1096 1786 m 68 Y s black
 gsave  2245 1433 0 743 C 1221.37 1704.59 t 0 r /Helvetica findfont 80.0434 sf 0 0 m (t) show NC gr  6 lw 1221 1769 m 23 X s
 gsave  2245 1433 0 743 C 1198.54 1704.59 t 0 r /Helvetica findfont 80.0434 sf 0 0 m (t) show NC gr  0.6 1 0.6 c 3 lw 1096 1689 m 87 X 68 Y -87 X f 6 lw 9 lw 1096 1757 m 87 X s 1096 1689 m 87 X s 1183 1689 m 68 Y s 1096 1689 m 68 Y s black
 gsave  2245 1433 0 743 C 1704.59 1993.76 t 0 r /Helvetica findfont 80.0434 sf 0 0 m (Diboson1l) show NC gr  0.6 0.4 0.8 c 3 lw 1592 1980 m 94 X 67 Y -94 X f 9 lw 1592 2047 m 94 X s 1592 1980 m 94 X s 1686 1980 m 67 Y s 1592 1980 m 67 Y s black
 gsave  2245 1433 0 743 C 1704.59 1898.64 t 0 r /Helvetica findfont 80.0434 sf 0 0 m (Diboson2l) show NC gr  1 0 0 c 3 lw 1592 1883 m 94 X 67 Y -94 X f 9 lw 1592 1950 m 94 X s 1592 1883 m 94 X s 1686 1883 m 67 Y s 1592 1883 m 67 Y s black
 gsave  2245 1433 0 743 C 1704.59 1799.71 t 0 r /Helvetica findfont 80.0434 sf 0 0 m (Single top) show NC gr  0 0.6 0 c 3 lw 1592 1786 m 94 X 68 Y -94 X f 9 lw 1592 1854 m 94 X s 1592 1786 m 94 X s 1686 1786 m 68 Y s 1592 1786 m 68 Y s black
 gsave  2245 1433 0 743 C 1704.59 1704.59 t 0 r /Helvetica findfont 80.0434 sf 0 0 m (Others) show NC gr  1 0.6 0 c 3 lw 1592 1689 m 94 X 68 Y -94 X f 9 lw 1592 1757 m 94 X s 1592 1689 m 94 X s 1686 1689 m 68 Y s 1592 1689 m 68 Y s black 3 lw 1 1 1 c
 2245 696 0 22 bf black 1 1 1 c 1774 449 359 266 bf black 1774 449 359 266 bl 1 1 1 c 1774 449 359 266 bf black 1774 449 359 266 bl 359 266 m 1774 X s 359 299 m -33 Y s 418 282 m -16 Y s 477 282 m -16 Y s 537 282 m -16 Y s 596 282 m -16 Y s 655 282 m
 -16 Y s 714 299 m -33 Y s 773 282 m -16 Y s 832 282 m -16 Y s 891 282 m -16 Y s 950 282 m -16 Y s 1010 282 m -16 Y s 1069 299 m -33 Y s 1128 282 m -16 Y s 1187 282 m -16 Y s 1246 282 m -16 Y s 1305 282 m -16 Y s 1364 282 m -16 Y s 1423 299 m -33 Y s
 1482 282 m -16 Y s 1542 282 m -16 Y s 1601 282 m -16 Y s 1660 282 m -16 Y s 1719 282 m -16 Y s 1778 299 m -33 Y s 1837 282 m -16 Y s 1896 282 m -16 Y s 1955 282 m -16 Y s 2015 282 m -16 Y s 2074 282 m -16 Y s 2133 299 m -33 Y s
 gsave  2245 696 0 22 C 304.391 156.001 t 0 r /Helvetica findfont 98.9489 sf 0 0 m (80) show NC gr 
 gsave  2245 696 0 22 C 627.807 156.001 t 0 r /Helvetica findfont 98.9489 sf 0 0 m (130) show NC gr 
 gsave  2245 696 0 22 C 981.663 156.001 t 0 r /Helvetica findfont 98.9489 sf 0 0 m (180) show NC gr 
 gsave  2245 696 0 22 C 1339.32 156.001 t 0 r /Helvetica findfont 98.9489 sf 0 0 m (230) show NC gr 
 gsave  2245 696 0 22 C 1693.18 156.001 t 0 r /Helvetica findfont 98.9489 sf 0 0 m (280) show NC gr 
 gsave  2245 696 0 22 C 2047.03 156.001 t 0 r /Helvetica findfont 98.9489 sf 0 0 m (330) show NC gr 
 gsave  2245 696 0 22 C 1856.79 60.8783 t 0 r /Helvetica findfont 98.9489 sf 0 0 m ( [GeV]) show NC gr 
 gsave  2245 696 0 22 C 1814.93 34.244 t 0 r /Helvetica findfont 64.6973 sf 0 0 m (T) show NC gr 
 gsave  2245 696 0 22 C 1738.84 60.8783 t 0 r /Helvetica findfont 98.9489 sf 0 0 m (m) show NC gr  359 715 m 1774 X s 359 682 m 33 Y s 418 698 m 17 Y s 477 698 m 17 Y s 537 698 m 17 Y s 596 698 m 17 Y s 655 698 m 17 Y s 714 682 m 33 Y s 773 698 m 17
 Y s 832 698 m 17 Y s 891 698 m 17 Y s 950 698 m 17 Y s 1010 698 m 17 Y s 1069 682 m 33 Y s 1128 698 m 17 Y s 1187 698 m 17 Y s 1246 698 m 17 Y s 1305 698 m 17 Y s 1364 698 m 17 Y s 1423 682 m 33 Y s 1482 698 m 17 Y s 1542 698 m 17 Y s 1601 698 m 17
 Y s 1660 698 m 17 Y s 1719 698 m 17 Y s 1778 682 m 33 Y s 1837 698 m 17 Y s 1896 698 m 17 Y s 1955 698 m 17 Y s 2015 698 m 17 Y s 2074 698 m 17 Y s 2133 682 m 33 Y s 359 266 m 449 Y s 403 266 m -44 X s 381 305 m -22 X s 381 344 m -22 X s 381 383 m
 -22 X s 381 422 m -22 X s 403 461 m -44 X s 381 500 m -22 X s 381 539 m -22 X s 381 578 m -22 X s 381 617 m -22 X s 403 656 m -44 X s 403 656 m -44 X s 381 695 m -22 X s
 gsave  2245 696 0 22 C 258.733 228.294 t 0 r /Helvetica findfont 102.755 sf 0 0 m (0) show NC gr 
 gsave  2245 696 0 22 C 273.952 422.343 t 0 r /Helvetica findfont 102.755 sf 0 0 m (1) show NC gr 
 gsave  2245 696 0 22 C 258.733 616.393 t 0 r /Helvetica findfont 102.755 sf 0 0 m (2) show NC gr 
 gsave  2245 696 0 22 C 140.781 266.343 t 90 r /Helvetica findfont 102.755 sf 0 0 m (Data / SM) show NC gr  2133 266 m 449 Y s 2089 266 m 44 X s 2111 305 m 22 X s 2111 344 m 22 X s 2111 383 m 22 X s 2111 422 m 22 X s 2089 461 m 44 X s 2111 500 m 22 X
 s 2111 539 m 22 X s 2111 578 m 22 X s 2111 617 m 22 X s 2089 656 m 44 X s 2089 656 m 44 X s 2111 695 m 22 X s 0.4 0.4 0.6 c 6 lw black 3 lw cs 0 0 0 P04 setcolor 359 266 m 214 Y 355 X 122 Y 355 X -66 Y 354 X 12 Y 355 X 63 Y 355 X -345 Y 45 Y -355 X
 63 Y -355 X 11 Y -354 X -66 Y -355 X 123 Y -355 X -176 Y FA 6 lw black 537 455 m 10 Y s 537 465 m cl s 537 455 m -10 Y s 537 445 m cl s 891 337 m 25 Y s 891 362 m cl s 891 337 m -20 Y s 891 317 m cl s 1246 436 m 115 Y s 1246 551 m cl s 1246 436 m
 -74 Y s 1246 362 m cl s 1601 266 m 89 Y s 1601 355 m cl s 1601 266 m cl s 1601 266 m cl s 1955 715 m -242 Y s 1955 473 m cl s 1 1 1 c black 3 lw 537 455 891 337 1246 436 1601 266 4 { m20} R 6 lw 3 lw 359 266 m 1774 X s 359 299 m -33 Y s 418 282 m
 -16 Y s 477 282 m -16 Y s 537 282 m -16 Y s 596 282 m -16 Y s 655 282 m -16 Y s 714 299 m -33 Y s 773 282 m -16 Y s 832 282 m -16 Y s 891 282 m -16 Y s 950 282 m -16 Y s 1010 282 m -16 Y s 1069 299 m -33 Y s 1128 282 m -16 Y s 1187 282 m -16 Y s
 1246 282 m -16 Y s 1305 282 m -16 Y s 1364 282 m -16 Y s 1423 299 m -33 Y s 1482 282 m -16 Y s 1542 282 m -16 Y s 1601 282 m -16 Y s 1660 282 m -16 Y s 1719 282 m -16 Y s 1778 299 m -33 Y s 1837 282 m -16 Y s 1896 282 m -16 Y s 1955 282 m -16 Y s
 2015 282 m -16 Y s 2074 282 m -16 Y s 2133 299 m -33 Y s 359 715 m 1774 X s 359 682 m 33 Y s 418 698 m 17 Y s 477 698 m 17 Y s 537 698 m 17 Y s 596 698 m 17 Y s 655 698 m 17 Y s 714 682 m 33 Y s 773 698 m 17 Y s 832 698 m 17 Y s 891 698 m 17 Y s 950
 698 m 17 Y s 1010 698 m 17 Y s 1069 682 m 33 Y s 1128 698 m 17 Y s 1187 698 m 17 Y s 1246 698 m 17 Y s 1305 698 m 17 Y s 1364 698 m 17 Y s 1423 682 m 33 Y s 1482 698 m 17 Y s 1542 698 m 17 Y s 1601 698 m 17 Y s 1660 698 m 17 Y s 1719 698 m 17 Y s
 1778 682 m 33 Y s 1837 698 m 17 Y s 1896 698 m 17 Y s 1955 698 m 17 Y s 2015 698 m 17 Y s 2074 698 m 17 Y s 2133 682 m 33 Y s 359 266 m 449 Y s 403 266 m -44 X s 381 305 m -22 X s 381 344 m -22 X s 381 383 m -22 X s 381 422 m -22 X s 403 461 m -44 X
 s 381 500 m -22 X s 381 539 m -22 X s 381 578 m -22 X s 381 617 m -22 X s 403 656 m -44 X s 403 656 m -44 X s 381 695 m -22 X s 2133 266 m 449 Y s 2089 266 m 44 X s 2111 305 m 22 X s 2111 344 m 22 X s 2111 383 m 22 X s 2111 422 m 22 X s 2089 461 m
 44 X s 2111 500 m 22 X s 2111 539 m 22 X s 2111 578 m 22 X s 2111 617 m 22 X s 2089 656 m 44 X s 2089 656 m 44 X s 2111 695 m 22 X s 9 lw 0.95 0.95 0.95 c black 368 461 m 869 X s 1237 461 m 869 X s 2106 461 m 18 X s
 gr  gr showpage
end
%%EOF
